<?xml version="1.0" encoding="UTF-8"?>
<svg viewBox="0 0 40 34" version="1.1" xmlns="http://www.w3.org/2000/svg" xmlns:xlink="http://www.w3.org/1999/xlink">
    <title>img/icon-seta-white</title>
    <g id="Page-1" stroke="none" stroke-width="1" fill="none" fill-rule="evenodd">
        <g id="Onboarding-1" transform="translate(-187.000000, -779.000000)" fill="#FFFFFF" fill-rule="nonzero">
            <g id="img/icon-seta-white" transform="translate(187.000000, 776.000000)">
                <path d="M38.3333333,18.3337396 L5.08416667,18.3337396 L17.8158333,6.20707294 C18.4825,5.57207294 18.5083333,4.51707294 17.8733333,3.85040628 C17.2391667,3.18457294 16.1841667,3.15790628 15.5166667,3.79290628 L0.976666667,17.6429063 C0.3475,18.2729063 0,19.1095729 0,20.0004063 C0,20.8904063 0.3475,21.7279063 1.00583333,22.3854063 L15.5175,36.2070729 C15.84,36.5145729 16.2533333,36.6670729 16.6666667,36.6670729 C17.1066667,36.6670729 17.5466667,36.4937396 17.8741667,36.1495729 C18.5091667,35.4829063 18.4833333,34.4287396 17.8166667,33.7937396 L5.03166667,21.6670729 L38.3333333,21.6670729 C39.2533333,21.6670729 40,20.9204063 40,20.0004063 C40,19.0804063 39.2533333,18.3337396 38.3333333,18.3337396 L38.3333333,18.3337396 Z" id="Path" transform="translate(20.000000, 20.000203) scale(-1, 1) translate(-20.000000, -20.000203) "></path>
            </g>
        </g>
    </g>
</svg>